[
  {
    "title": "China\u2019s unity is a doable task",
    "link": "https://punchng.com/chinas-unity-is-a-doable-task/",
    "created_parsed": "July 18 2019",
    "keywords": "cpc",
    "author": [],
    "text": "",
    "full_text": "Zhou Pingjian\n\n\u201cChina must be, will be reunified,\u201d said Chinese President Xi Jinping in his speech delivered on January 2 at a gathering in Beijing to commemorate the 40th anniversary of issuing Message to Compatriots in Taiwan. \u201cIt is a historical conclusion drawn over the 70 years of the development of cross-Straits relations, and a must for the great rejuvenation of the Chinese nation in the new era,\u201d he said.\n\nTaiwan, lying off the southeastern coast of the Chinese mainland, is China\u2019s largest island and forms an integral whole with the mainland. Taiwan has belonged to China since ancient times. On October 1, 1949, the Chinese people led by the Communist Party of China won a great victory in the new democratic revolution and founded the People\u2019s Republic of China. The Kuomintang ruling clique retreated from the mainland to entrench in China\u2019s Taiwan Province in confrontation with the central government with the support of foreign forces. This is the origin of the Taiwan issue.\n\nAlthough the mainland and Taiwan have remained to be reunified since 1949, the Chinese territory and sovereignty have not been split. The two sides are in a state of political confrontation resulting from China\u2019s civil war in the mid- to late- 1940s. Since 1949, the CPC, the Chinese government and the Chinese people have always unwaveringly taken resolving the Taiwan question to realise China\u2019s complete reunification as a historic task. The message to compatriots in Taiwan issued by Beijing on January 1, 1979, made clear the question of Taiwan is an internal affair and set out the fundamental policy of striving for peaceful reunification.\n\nIn his speech on January 2, 2019, President Xi outlined breakthroughs in cross-Straits relations over the past 70 years. Estrangement between the mainland and Taiwan was ended in line with the common will of compatriots across the Straits, and Taiwan compatriots have made great contributions to the reform and opening-up in the mainland. The mainland and Taiwan reached the 1992 Consensus based on the one-China principle, and the political exchanges across the Straits have reached new heights.\n\nThe basic principles of \u201cpeaceful reunification\u201d and \u201cone country, two systems\u201d were established, and the basic policy of upholding \u201cone country, two systems\u201d and advancing the national reunification was laid out. More and more countries and peoples have understood and supported the cause of the reunification of China. Furthermore, over the 70 years, a series of major victories in the battles against \u201cTaiwan independence\u201d and separatists have been achieved.\n\nAccording to President Xi, the historical and legal facts, that Taiwan is part of China and the two sides across Taiwan Straits belong to one and the same China, can never be altered by anyone or any force; the fact that compatriots across the Straits are all Chinese who share natural kinship and national identity can never be changed by anyone or any force; the peaceful and stable development of cross-Straits situations and the progress of cross-Straits relations are the tide of the time that can never be stopped by anyone or any force. He called on Chinese people across the Taiwan Straits as well as at home and abroad to work together for the Chinese nation\u2019s greater good and go with the tide of history, to jointly push forward the peaceful development of the cross-Straits relations and advance the process toward the peaceful reunification of China.\n\nThe Taiwan question originated from national weakness and disorder, and will definitely end with national rejuvenation, President Xi said. The principles of \u201cpeaceful reunification\u201d and \u201cone country, two systems\u201d are the best approach to realising national reunification. President Xi proposed that the mainland and Taiwan conduct democratic consultation on cross-Straits relations and the future of the nation, and establish institutional arrangement for peaceful development of cross-Straits relations. Political parties and all sectors on both sides of the Straits may recommend representatives to conduct extensive and in-depth democratic consultation on the basis of the common political foundation of upholding the 1992 Consensus and opposing \u201cTaiwan independence.\u201d\n\nWhile pledging utmost sincerity for peaceful reunification, President Xi makes no promise to renounce the use of force. This does not target compatriots in Taiwan, but the interference of external forces and the very small number of \u201cTaiwan independence\u201d separatists and their activities. \u201cTaiwan independence\u201d goes against the trend of history and will lead to a dead end. \u201cWe are willing to create broad space for peaceful reunification, but will leave no room for any form of separatist activities,\u201d he said.\n\nThe Taiwan question concerns China\u2019s core interests and the national bond of the Chinese people. China\u2019s reunification does not harm any country\u2019s legitimate interests, including their economic interests in Taiwan. It will only bring more development opportunities to other countries, inject more positive energy into the prosperity and stability in the Asia-Pacific region and the world, and make greater contributions to building a community with a shared future for humanity, to world peace and development, and to the cause of human progress.\n\nTwo years ago, a joint statement by the Government of China and the Government of Nigeria was signed in Abuja on January 11, 2017 by the visiting Chinese foreign minister Wang Yi and honourable minister of foreign affairs Geoffrey Onyeama. The Government of China and the Government of Nigeria reaffirmed their respect for each other\u2019s sovereignty and territorial integrity.\n\nAccording to the joint statement, \u201cThe government of the Federal Republic of Nigeria reaffirms that the one China policy is at the core of its strategic partnership with China. The Government of the Federal Republic of Nigeria recognises that there is only one China in the world, that the Government of the People\u2019s Republic of China is the sole legal government representing the whole of China, and that Taiwan is an inalienable part of China\u2019s territory. The Government of Federal Republic of Nigeria reiterates not to have any official relations or engage in any official contacts with Taiwan, and supports all efforts made by the Chinese Government to realise national reunification.\u201d\n\nThe Government of the People\u2019s Republic of China appreciates the above position and the measures taken accordingly by the Government of the Federal Republic of Nigeria. To keep China one is a task that must be done.\n\nDr. Zhou is Ambassador of China to Nigeria\n\nCopyright PUNCH.\n\nAll rights reserved. This material, and other digital content on this website, may not be reproduced, published, broadcast, rewritten or redistributed in whole or in part without prior express written permission from PUNCH.\n\nContact: [email protected]\n\nDOWNLOAD THE PUNCH NEWS APP NOW ON",
    "article_image": "https://cdn.punchng.com/wp-content/uploads/2018/08/16160906/china.png",
    "source_link": "https://punchng.com"
  },
  {
    "title": "Savings Accounts - UBA Nigeria",
    "link": "https://www.ubagroup.com/nigeria/personal-banking/accounts/savings-accounts/",
    "created_parsed": "July 18 2019",
    "keywords": "Consumer Protection Council",
    "author": [
      "United Bank For Africa"
    ],
    "text": "",
    "full_text": "TO WIN: Make a monthly deposit of N10,000 for 3 consecutive months or a one-time deposit of N30,000 into your UBA savings account and save for 3 months to qualify for the quarterly raffle draws!\n\nPromo is open to new and existing customers.\n\n\n\nOPENING A UBA ACCOUNT IS EASY:\n\nDial *919*20#, chat with Leo or click on the button below to open a UBA account today and start saving!\n\nPROMO LASTS TILL SEPTEMBER 30, 2019.\n\nTERMS AND CONDITIONS APPLY\n\n* THIS PROMO IS APPROVED BY THE CONSUMER PROTECTION COUNCIL AND THE NATIONAL LOTTERY REGULATORY COMMISSION.",
    "article_image": "https://www.ubagroup.com/nigeria/wp-content/uploads/sites/3/2018/08/UBA-Savings-account-1024x369.jpg",
    "source_link": "https://www.ubagroup.com"
  }
]